20 200
1.48749 0.904395 1.45635 0.950594 1.42263 0.882661 0.889685 0.860509 1.2546 0.812965 1.12732 1.2191 1.06929 1.0993 1.09557 1.27967 1.31955 0.827768 1.33587 0.88061 1.30358 1.264 1.15695 0.998392 0.86919 1.34696 1.29533 1.42574 0.927573 1.482 1.23529 1.14648 0.826849 0.944274 1.45849 1.03133 0.906883 0.835493 1.11017 0.83321 1.05273 0.984629 1.34251 1.25276 1.44526 1.31022 1.37284 1.07009 1.10398 1.39483 1.03931 1.01193 1.28916 1.03375 1.17697 1.10967 0.865792 1.26677 1.46743 1.17063 1.4243 1.4956 1.12569 1.40759 1.24419 1.14641 0.917234 1.1396 1.44236 1.4116 1.25203 0.854217 0.997818 1.0865 0.895054 1.1138 0.957623 1.19595 1.42992 1.28858 1.02003 0.978061 1.41279 1.16232 1.19874 1.43604 1.20693 0.832732 1.45331 1.16853 1.15293 1.34023 0.849195 0.868322 1.36663 0.895572 1.08697 1.38693 1.06942 1.45313 0.879022 1.09832 1.29616 1.10697 1.34142 1.01345 1.33407 0.951546 1.36178 1.14539 1.47153 0.83528 1.08112 1.45297 1.19171 1.26061 1.0141 1.16918 1.05625 1.02377 0.83024 1.24465 1.24055 1.42522 0.848455 0.956048 0.934538 0.854327 1.18828 1.20251 0.975919 1.2809 0.999746 1.06003 0.920819 1.16004 0.97484 1.28688 1.14975 1.05671 1.39152 1.35012 1.37217 1.13968 0.988818 0.823541 1.05542 1.01958 0.990717 0.837896 1.49836 0.992075 1.23361 1.38023 1.12672 1.2895 1.17139 1.12935 1.29604 1.07014 1.44822 0.870679 1.09456 1.06183 1.35283 1.31821 0.828647 0.852283 0.834452 1.16117 1.47601 1.43915 1.47646 0.959836 1.01069 1.33764 0.920327 0.954879 1.2567 0.874193 1.31345 0.962011 1.46433 1.31208 1.11567 1.2911 0.910388 1.02899 1.1966 1.22529 1.35324 0.846241 0.939077 1.32582 1.03727 1.25577 1.40882 1.44128 1.16744 1.30339 
1.31413 0.952047 1.02532 0.977863 0.849246 0.851016 0.969511 1.44825 1.3313 1.24584 1.03481 0.862678 1.34611 1.23981 1.00544 1.41096 0.966149 0.898106 1.32699 0.914483 0.95991 1.23408 1.43966 1.48816 1.49436 1.14909 1.49902 1.31647 1.36094 0.806356 1.31041 1.3585 1.36341 0.859866 1.33633 1.48175 1.44539 1.03583 1.33223 1.09579 1.01507 1.15146 0.951436 1.01447 0.926566 1.30586 1.11582 0.945055 1.20875 1.07966 0.982272 1.32917 1.44077 0.81708 1.4887 1.07306 0.891275 1.03863 1.1158 1.00015 1.09769 1.07432 1.38762 1.08538 1.31866 1.36436 1.24396 1.09013 1.43406 0.959886 0.932671 1.36208 1.35749 1.34399 1.17961 1.14742 1.05665 1.25084 0.863367 1.34182 1.13616 1.26028 0.831999 1.05523 1.44665 1.19486 0.897328 1.10612 1.46897 1.47383 1.29782 0.812928 1.31943 1.20535 1.404 1.08255 0.981506 1.45234 1.07105 1.26005 0.987096 1.32492 1.13652 1.38724 1.04587 0.887752 1.26384 1.10962 1.04744 1.09828 1.1517 1.27557 1.35466 0.979829 0.944199 1.04056 1.24097 0.90129 1.24557 0.959819 1.2424 1.00765 1.41469 1.11924 1.29942 1.32956 1.28519 0.843375 1.18246 1.21929 0.840769 0.805417 1.31586 1.00349 1.27555 0.873702 0.881943 1.44316 1.14579 0.896989 1.30923 1.22971 1.37494 0.98958 1.35555 1.40091 1.04103 1.35412 0.987417 1.00793 1.25136 0.97925 1.45672 1.37214 1.22902 0.884482 1.24846 1.1342 1.38655 1.18946 1.47981 0.946749 1.02141 0.984135 1.08791 1.34119 0.903712 1.02723 0.92542 0.964734 1.42191 0.858074 1.39083 0.954029 1.41016 1.34253 0.978286 1.02082 0.936122 0.908247 1.26246 0.936185 0.916021 1.0246 0.947977 1.26051 0.885866 1.23717 0.998968 0.863287 1.1546 1.31899 1.35673 1.06765 1.21299 1.42045 1.00012 0.838359 1.35371 0.999161 
1.02331 1.31676 1.04803 1.30491 1.49828 1.33016 0.93956 1.20099 1.16591 0.92956 1.41321 0.986693 0.966436 1.38033 1.21448 0.934509 1.21982 0.92414 1.30054 0.961619 1.37475 0.918376 1.19458 0.866669 1.27977 1.14627 1.28419 1.29818 0.972069 1.39339 1.32545 1.10829 1.28075 1.43914 1.20727 1.25111 0.95589 1.10425 1.47016 1.32801 1.4296 1.04989 1.35289 0.932134 1.44968 1.41894 0.909098 1.30148 1.11475 1.19226 1.279 1.46548 1.35415 1.141 1.38243 1.1819 1.4375 1.21763 1.08104 1.37324 1.31473 0.994273 1.01069 0.960892 1.33056 1.04435 1.46227 1.36519 0.966983 1.33714 1.3223 0.836237 0.987554 1.09725 1.40823 0.825389 0.857412 1.38146 0.832818 1.0875 1.13478 1.15986 1.31263 1.29024 1.01133 1.29599 0.852431 0.827477 1.24508 1.27101 0.973418 1.45325 0.955384 0.942958 1.41059 1.3577 0.969813 1.17433 1.29354 1.07007 1.29816 1.45243 1.15593 1.47853 1.02304 0.976315 1.03805 1.35042 1.0686 1.26592 1.13397 1.36434 1.17678 0.808702 1.23745 1.04289 1.21126 1.04362 0.825053 1.11775 0.927262 0.916325 0.984617 0.832359 1.08537 0.937929 1.1328 0.815658 1.44807 1.30772 0.938601 0.856341 1.48631 1.46438 1.49106 1.2799 1.21409 1.36474 1.06807 1.13679 1.03326 1.4253 0.889696 1.43748 1.23592 1.45772 0.923086 1.13786 1.40295 1.40118 1.48814 1.13048 1.13064 1.28468 1.28021 0.988623 0.939768 1.31911 1.34161 1.02397 0.909176 1.48903 1.21813 1.37367 1.46001 1.13001 1.05116 1.05819 0.840626 1.28597 0.895674 1.28962 0.874883 1.49302 1.21897 0.923706 1.35157 0.835616 1.13712 1.14437 1.0195 0.87831 0.801726 1.15309 0.883727 1.49103 0.919081 1.0271 1.35385 1.36357 1.05372 1.2077 1.31257 0.894437 1.01998 0.848933 1.29019 1.03844 1.17664 1.09533 
1.48283 1.05708 0.885801 1.42628 0.847769 1.43288 0.971682 1.23184 1.03189 1.25469 1.15599 1.23833 0.850824 1.01478 1.29372 1.00879 1.05095 1.37213 1.03091 1.43607 1.47527 1.31251 1.35709 0.937889 1.00637 1.26055 1.27248 1.36271 1.10626 1.16194 1.22555 1.28976 0.919229 1.48509 1.18347 1.26198 1.05802 1.01104 1.33413 0.978315 0.979743 1.30208 1.42204 1.10703 1.36636 1.42189 1.48053 1.32196 1.22938 1.03275 0.848257 1.41475 0.95118 1.00373 1.19517 1.06476 1.32006 1.44304 1.09949 0.963397 1.45142 0.854807 1.49847 1.29995 1.15293 1.17467 1.01485 1.12412 1.4896 1.22039 1.15861 1.34468 1.209 0.984307 1.35741 1.18134 1.46994 0.969197 1.07114 1.43322 1.3735 1.44431 0.934311 0.963642 0.800625 1.18491 1.22474 1.18705 1.33728 1.32546 1.02683 0.960114 1.08336 0.990828 1.1732 1.23026 0.974096 1.28606 1.09382 1.46488 1.4989 1.31745 1.49141 1.00453 0.911628 1.01454 1.20728 0.817312 1.17282 0.874691 1.05424 1.40081 1.40181 0.987446 0.83364 1.13485 1.20876 1.01849 1.03218 1.0571 1.07416 1.05115 1.43854 1.10729 1.46588 1.33124 1.23377 1.30333 1.27298 1.14782 1.27708 0.828483 1.4876 1.29339 1.02863 0.93134 1.19486 1.06509 1.28824 1.06823 1.38866 1.47138 1.05221 1.07528 0.881392 1.48048 1.02081 1.19409 1.23396 1.2459 1.01482 1.44319 0.90796 1.46052 1.22509 1.1897 0.838789 1.05623 1.11377 1.15853 1.11698 0.876674 1.32727 1.06467 1.26395 0.941509 1.26177 1.42414 1.23126 0.930476 0.961705 0.807477 0.80719 1.29431 1.30604 0.864198 1.19595 1.18649 0.836673 0.977388 1.3658 1.23252 0.824455 1.21435 1.39152 1.20511 0.962614 0.937138 1.23887 1.33584 1.29328 1.26146 1.40329 1.44332 0.988043 1.08088 1.31199 0.841418 0.840982 1.0562 
1.07468 1.3772 0.992198 1.11259 1.20855 0.90402 1.25692 0.924086 0.990728 1.45828 1.41639 1.39471 0.999845 1.24605 1.47349 1.44044 0.901869 1.23452 1.42019 1.30685 0.982717 1.05775 1.34676 0.892486 1.13256 1.19898 1.4064 1.07088 1.0676 1.00472 0.917001 1.24663 1.2472 1.14529 0.879447 1.46454 1.1158 1.16639 0.942672 1.3082 1.3215 1.09517 1.41015 1.09625 1.33833 1.03249 1.31479 1.42729 1.36763 0.931843 1.30385 1.08845 1.14562 1.33697 1.35457 1.04534 1.03651 1.20664 0.897126 1.33727 0.988591 0.869691 1.43557 1.27605 1.21816 0.935095 1.18908 1.30709 1.03054 0.914692 1.13917 1.08067 0.842833 0.979849 1.29587 0.808359 1.03138 0.929329 0.810019 1.01309 1.02418 1.18766 1.06372 1.35045 0.908155 1.07436 0.955851 1.47697 1.29161 0.97088 0.91074 1.32154 1.44323 1.25887 0.95078 1.14134 0.82895 1.21828 1.13869 1.46538 1.2483 1.37811 1.08275 1.06546 1.32323 1.49239 1.48228 1.24716 0.81457 0.836792 0.866322 1.4938 1.22955 0.869184 1.49398 1.18641 1.47685 1.08827 0.994146 0.887607 1.14467 0.92648 1.48065 0.999369 1.05164 1.02209 0.822413 1.01254 1.36365 0.959315 1.28951 0.976535 1.34934 0.927868 0.834466 1.0953 1.2288 1.32689 0.919579 1.06618 1.49635 1.21621 1.23416 0.884725 1.34801 0.869878 0.817165 0.804732 1.36253 1.18685 1.09051 1.38083 1.13175 1.36376 0.870023 0.805765 0.904007 0.923865 1.01067 0.89177 1.22034 1.12379 1.47534 1.33957 1.08964 1.13728 1.35583 1.32218 1.29642 1.14027 0.946041 1.41968 1.26446 1.06587 1.41747 1.14088 1.42708 1.49752 1.44381 0.863315 1.31962 1.23272 1.01678 1.04801 1.08369 0.811793 1.03886 1.00168 1.3192 0.990129 1.44721 1.16652 0.832911 1.14147 1.0006 0.886009 0.829519 1.05577 1.34694 1.44497 
0.872393 1.44622 1.44214 0.898721 1.14436 0.872768 0.869473 1.48959 0.810979 0.92701 0.963668 1.14678 0.946309 1.45167 1.10501 1.45957 0.907496 1.08415 1.32292 1.21706 1.02182 1.30542 0.942474 1.1903 1.19326 0.9327 1.27722 1.2864 1.08402 0.925812 0.859038 0.889693 0.903801 1.13454 1.0025 0.917731 1.12079 1.01865 1.20319 1.33562 1.45521 0.993651 1.26741 0.953461 1.05559 1.17651 0.819282 1.09899 1.03361 1.15899 1.02746 0.918654 0.986643 1.14295 1.22604 1.35527 1.49427 1.04475 0.982964 1.39021 1.49816 1.01149 1.37778 0.925727 0.904454 0.998545 1.22118 0.969637 1.28357 0.932988 0.976679 0.892318 1.05665 1.21697 0.970001 1.10212 1.26542 0.912487 1.32452 1.19901 0.975386 1.47036 1.12347 1.39162 1.19466 1.42384 1.03048 1.14185 1.36635 1.39164 1.24338 1.26537 0.801754 1.10144 0.85064 1.0383 1.35238 1.40021 1.11869 1.14056 1.33195 1.26966 1.26899 1.37087 0.985252 1.25356 1.48458 1.02031 0.856782 0.918316 1.08891 0.882124 0.994621 1.0686 1.07528 1.30864 0.852166 1.20343 1.35533 1.07811 1.2315 1.08013 1.02179 1.35113 1.11531 0.898253 1.20478 1.37179 1.19973 0.838557 1.45891 1.10185 1.49081 0.92157 0.98561 1.15646 1.19337 1.39761 1.39458 0.986795 1.31003 0.989587 1.08656 0.872222 1.4835 1.42869 1.29022 1.42459 1.09085 1.02469 1.05616 1.21731 1.37093 0.833227 1.45555 0.963278 1.48689 1.22596 1.25595 1.42602 0.946199 1.36975 1.35749 1.22895 1.05865 1.25869 1.02322 1.30126 1.45084 1.48686 0.844677 1.26057 1.1189 1.40605 1.02293 0.987192 0.983037 1.31374 1.27157 0.838053 1.36736 1.00978 1.45824 0.924784 1.21757 1.4906 1.34953 0.887292 0.884503 1.45021 1.31177 0.837414 1.34171 1.26277 1.10396 0.929391 1.45472 0.931292 1.45282 1.17621 
1.07469 1.11008 1.08418 0.950292 1.27223 1.23923 0.981518 1.05891 1.39679 0.939457 1.02399 1.44682 1.38584 1.48607 0.997338 1.03221 1.11576 1.48524 1.48899 0.933765 1.39822 1.44156 1.39661 1.12689 0.841861 0.806672 1.17292 1.13872 1.02032 0.82884 0.818694 0.844657 1.30349 1.41747 0.858044 0.873802 1.22347 0.990015 0.827523 1.03869 1.41569 0.863094 0.968078 0.938608 0.837976 1.03293 0.959147 0.997983 0.964562 1.45773 1.20859 1.4641 0.863282 1.35169 1.41919 1.21511 1.43472 1.45056 1.39954 1.41864 1.43352 0.862062 0.998021 1.306 0.957385 1.38662 0.856726 1.11005 1.37742 1.14985 0.804978 1.29263 0.804512 1.41 1.12426 1.33037 1.03594 0.823537 1.19889 1.27798 1.47484 1.39975 1.33897 1.18681 1.01402 1.01847 1.09763 1.21435 1.22539 1.37023 1.48477 1.1685 1.3595 0.828502 0.814315 1.39352 1.03735 0.937306 1.23799 0.806112 0.808379 0.856405 0.905162 1.43033 0.878253 0.842485 1.18629 1.12785 0.99327 0.866242 1.15551 1.04178 0.874505 1.21404 1.24646 1.49831 1.2544 1.33914 1.2987 1.20695 1.37658 0.879757 0.894674 0.812804 1.45485 1.28535 1.15572 1.3369 1.33544 0.885157 1.02129 1.44335 1.13092 0.823901 1.49397 1.452 1.45465 1.25664 1.10666 1.07723 1.30966 0.83541 0.953925 1.05764 0.950772 1.39248 0.812345 1.02709 1.27894 1.18694 1.15489 1.49108 1.01847 1.04999 0.905877 0.955919 1.18838 1.25821 1.00119 0.813908 1.42541 1.03957 0.837485 1.19129 1.08563 0.977152 1.26912 1.23003 1.43466 0.95525 1.41556 1.06948 0.853291 1.13117 0.837032 1.47491 0.912898 1.24828 0.875489 1.25473 1.11361 1.49505 1.03729 1.09635 1.10754 0.885142 0.80618 1.00329 1.41496 0.806598 0.885867 1.00184 1.46562 1.39382 1.45889 1.13198 1.20735 0.934115 0.815351 1.12399 
1.43053 0.863326 1.29923 1.33251 1.39306 0.973908 1.2242 1.3733 1.33256 0.868877 0.802876 1.49672 1.03915 1.04715 1.17624 0.936678 0.843705 1.14978 1.36591 0.905029 1.03518 0.894997 0.817908 1.16349 1.11666 1.30786 1.4275 1.0235 1.11274 1.08514 1.29026 1.1259 1.32763 1.47953 1.02721 0.968196 1.42 1.14216 1.45446 1.13174 1.10782 1.07189 0.860438 1.11341 1.11285 1.18372 0.980655 1.16849 0.987732 1.43253 1.1953 0.805862 1.14194 1.01839 1.23103 0.985743 1.06636 1.35274 1.17378 1.11322 1.13307 1.09284 0.9387 1.40845 1.29946 0.869361 1.44295 1.44587 1.19208 0.93633 1.20578 1.32411 0.894231 0.929273 1.12404 0.814729 1.24207 1.25393 1.43454 1.03834 1.45118 0.996347 1.48565 1.01489 1.10462 0.881558 0.915408 1.29406 0.925017 0.820062 1.06004 0.829057 1.42297 1.16206 0.947897 1.0904 1.34177 0.842954 1.21397 0.949445 1.19015 1.1558 1.30732 1.19619 1.42965 1.10599 1.49915 1.186 1.07708 1.41905 1.06023 1.40458 0.862286 1.00068 1.33762 1.44332 1.28877 1.36796 1.44297 1.36738 0.804617 0.908752 1.34635 1.37345 0.908195 0.890497 0.916048 1.15894 1.45693 1.28543 1.42271 0.927091 1.09679 1.22739 1.48126 1.27699 1.31851 1.15647 0.933562 1.34442 0.948303 1.05291 1.21766 1.31031 0.936031 0.866773 0.98551 1.31481 0.947253 1.17198 1.08943 1.24819 1.13931 1.37431 1.16737 1.26702 1.40722 1.31434 0.85374 1.27511 1.39117 1.15661 1.43366 1.24782 1.48158 1.23088 1.23708 1.2394 1.32584 1.12538 1.36598 1.01912 1.26327 1.15739 0.876737 1.12651 1.29653 1.36358 1.42838 1.315 1.32078 0.891803 0.98563 1.47119 0.857449 1.04235 1.13979 1.46902 1.29303 1.26611 0.879386 1.01003 1.02614 1.18821 1.35473 1.43226 1.40217 1.02636 0.958944 1.0562 
0.826137 1.2706 1.10646 1.13356 1.44751 1.08742 1.04501 1.13798 0.991994 0.858914 1.38951 0.823765 0.878289 1.04958 1.05975 1.08138 0.820467 1.42952 0.960229 0.887425 1.37074 1.28523 0.86063 1.39378 1.13032 0.908051 1.38669 0.968065 1.04263 0.995692 1.40115 1.42263 1.44168 1.07184 1.197 1.40816 1.40677 0.855571 0.929044 0.906784 1.04736 0.855256 1.20386 1.37772 1.49824 0.99239 1.32178 1.25836 0.963939 0.852203 1.04887 1.30724 1.16841 0.814923 1.20995 0.827547 1.25334 1.01837 0.886557 1.38449 0.973636 0.996973 1.31521 1.23167 0.848875 1.03822 1.44678 1.46708 0.949737 1.31829 0.985689 1.36525 0.908505 1.36936 0.992321 1.11655 0.922215 1.22662 1.38555 1.25299 0.874691 0.914912 0.883682 1.11718 0.885617 0.88534 0.851145 1.45661 1.48518 1.1151 0.977206 1.34732 0.959994 1.25795 0.928183 1.08853 1.00285 1.40092 1.49716 0.87037 1.17792 1.40374 1.44074 1.29055 0.909339 1.18549 1.23304 1.13706 1.28862 1.21093 1.44513 1.38985 1.20615 0.915545 1.47505 1.24445 1.33123 1.13081 1.10421 1.30458 1.48653 1.48959 1.30797 1.40892 0.865248 1.16362 1.04258 1.10267 1.056 1.39869 1.23641 0.897469 1.23258 1.26651 0.836357 1.49668 0.815909 1.12755 1.45263 0.965648 1.08933 1.02511 1.0617 1.40642 1.18401 0.80136 1.44794 1.10213 1.48098 1.18382 1.06025 1.45387 1.44782 1.2293 1.41821 1.02871 1.12573 1.43233 1.00131 0.811861 1.38578 1.02419 1.31704 0.850128 0.979288 0.978148 1.23513 1.15697 1.31385 1.45856 1.13041 1.25224 0.993693 1.32378 0.999079 1.10437 1.38714 1.14081 0.837325 1.3872 1.37083 1.01046 1.19588 0.984116 1.1721 1.23865 1.28724 1.12782 1.13401 1.03643 0.979724 1.46632 1.17409 0.952517 0.949161 1.46225 0.999691 0.801854 1.24948 0.861037 
1.46622 1.20252 0.904738 0.918666 1.28619 0.990292 1.43326 1.28787 1.11685 0.993183 0.960377 1.21363 1.15289 1.07695 1.31527 0.980937 1.32944 1.44527 1.03965 1.41039 1.38504 1.27753 0.969997 1.13887 1.46327 0.977527 1.22671 0.815883 1.0564 1.05304 1.44727 1.39963 1.33409 0.846534 1.22181 1.31346 1.0919 1.11545 1.06641 1.1393 1.23859 1.19703 1.42514 1.3741 0.822789 1.3915 1.18396 1.05612 1.36307 1.03871 0.825566 1.12497 1.19729 1.27495 1.33806 0.905609 1.49473 1.37473 1.45921 1.28625 0.814417 1.21278 1.00818 1.28621 1.1887 1.23951 1.20799 1.30187 1.40541 0.913411 1.15347 1.19673 1.4951 1.47206 1.19176 1.3773 0.918412 1.44415 1.1643 0.956816 1.31638 1.17066 1.42241 0.941147 0.920515 0.978312 0.876225 1.02712 1.10114 1.17082 1.01267 1.11637 1.01248 1.26155 1.1838 1.27805 1.14669 1.0459 0.896107 1.05833 1.29381 1.0744 0.952662 1.16732 1.25286 1.23565 1.34047 1.42221 0.873572 1.41617 0.902409 1.33104 1.31052 1.34627 1.17757 0.902906 1.0879 1.10008 1.3793 1.00688 1.37188 0.987656 1.10367 1.24908 1.31721 1.44194 0.80568 0.938121 1.08716 1.16247 1.43755 1.09373 0.809574 1.01013 1.13543 0.973421 0.842942 1.18987 1.02095 1.36473 1.21455 1.21019 1.45554 1.10062 1.22069 1.48994 1.46879 1.40027 1.32937 1.17501 1.34742 1.28862 1.46615 1.11003 1.08766 1.19069 1.24368 1.30457 1.41815 1.26326 1.45826 1.08946 0.872006 0.838492 1.0071 1.4015 1.26818 1.29541 1.00281 1.3929 0.957316 1.16894 0.81522 1.03938 1.44754 0.850535 1.38081 0.906395 1.35782 1.37998 1.13249 1.27108 1.18821 0.8072 1.16154 0.963958 0.819798 1.0715 1.12953 1.1516 0.874306 0.862943 1.16978 1.32008 1.12996 1.3941 1.48965 0.894468 1.33513 0.863299 
1.24656 1.41648 1.0366 1.25168 1.4694 1.09473 1.37905 1.44681 1.29099 1.09014 1.48065 1.34064 1.08574 0.888472 0.832327 1.05859 1.01103 1.45268 1.15293 1.2036 1.04856 1.2428 1.23061 1.41935 1.34842 1.01503 0.966204 1.11388 1.23265 1.37671 1.26634 0.986071 0.8408 1.41162 0.808834 1.38491 1.059 1.42571 1.2609 1.38532 1.47055 1.00701 1.27423 1.03672 0.856611 0.909929 0.97685 1.18108 0.839879 1.1717 1.43055 1.191 1.33178 1.3384 1.23772 0.865183 1.32328 1.235 0.923272 1.10002 0.834305 0.981511 1.3099 1.08836 0.990778 0.971537 0.947279 1.05309 1.05309 1.31384 1.20796 0.907112 1.11069 1.40716 1.43827 1.45664 0.942637 1.18163 0.864145 1.14056 1.08107 1.39223 1.11694 1.27203 1.01298 1.09858 1.00995 0.932834 1.18429 1.44624 0.834336 1.12462 0.895452 1.45755 0.918412 0.841665 1.2691 0.800881 1.08785 0.879373 1.33451 1.04217 0.986973 0.905306 0.835394 1.12711 1.1403 0.890109 0.882212 1.48935 1.0698 1.44069 1.34643 1.11395 0.966689 0.85105 1.03778 1.14235 1.27339 1.05245 1.17806 0.895837 1.47764 0.868113 1.33793 1.48035 1.07559 1.16481 1.18136 1.48183 1.05608 1.36667 1.04553 0.924974 1.05755 1.38 1.4258 1.14059 0.93344 1.01402 1.11521 1.19881 1.44082 1.45792 0.829483 0.805373 1.43259 1.46772 1.30272 1.27439 0.953528 1.48117 0.801766 0.983596 1.34409 0.837086 1.30607 1.12552 1.3842 1.03229 1.26407 1.49242 1.18043 1.34203 1.34777 0.893481 1.16654 1.41329 1.38107 0.926785 1.07331 1.04245 0.931952 1.38657 1.04502 1.15081 1.31209 1.0673 1.45515 1.13509 1.34792 1.19422 1.41326 0.810351 1.20332 1.36806 0.87205 0.910999 1.30331 1.10742 1.4736 1.36588 1.1999 0.916891 1.39127 0.83917 1.33437 0.90043 0.976298 1.00466 
1.35541 1.47901 1.23854 1.00269 1.25764 1.4965 0.96973 1.47651 1.2982 1.34059 1.18558 1.11319 1.13375 1.42549 0.902654 1.44172 1.08921 1.03651 0.844311 0.949539 0.849627 1.21125 1.17077 1.4511 0.954867 1.4561 1.39658 0.883495 0.976118 0.89171 1.4213 1.35884 1.31826 1.2265 1.05807 1.16347 1.35498 1.15406 0.890259 1.30009 1.0446 1.11842 1.24313 0.971329 0.927529 1.23114 1.04892 1.07665 1.46054 1.22371 1.33281 1.2506 0.966219 0.934311 1.44057 1.47257 0.806106 1.38609 1.0901 0.903134 1.37105 1.18895 0.902094 0.965693 1.33071 0.948568 1.10588 1.2204 0.970063 0.958186 1.0611 0.929134 0.955091 1.1271 1.47496 1.43312 1.10454 1.2649 0.930062 1.3502 1.35737 0.915227 1.32598 0.80878 1.42585 0.885451 1.38629 0.979323 0.857165 1.37716 0.9072 1.47884 1.24998 1.01204 0.812148 1.3533 1.05909 1.13231 0.887817 1.15188 1.35272 1.05342 1.10258 1.32313 1.1425 1.01639 0.931189 1.26311 0.881864 1.43938 1.21051 0.906733 1.00793 0.919646 1.19783 1.26923 0.913144 1.30255 1.14752 0.916791 1.08855 1.3245 0.86228 1.07367 1.04275 1.23831 1.19417 1.49061 0.918215 1.05687 0.853247 1.08523 1.33402 1.40063 1.11982 1.16721 0.919764 0.935922 1.32877 0.967558 1.15651 1.2161 1.44644 1.23829 1.10051 1.33111 1.48761 1.29545 1.10587 0.883867 1.44394 1.16318 0.966628 1.07976 0.907921 1.28715 1.23816 1.4609 1.11406 0.872518 1.11855 1.27998 1.12408 1.31399 1.46173 1.44762 1.04047 1.38839 1.15639 1.0668 0.866505 0.886083 1.26563 1.06046 1.24276 0.88303 0.917915 0.865967 1.3208 1.45931 0.99029 1.18799 0.973559 0.845125 1.07414 1.27482 0.951717 1.11526 0.999491 1.31142 0.83387 0.962163 1.10361 1.48237 1.02484 1.44256 1.49216 1.21977 1.43528 1.1414 
1.09434 1.43131 0.876106 0.891817 1.11017 0.81032 1.22842 1.035 0.827498 0.875352 1.25284 0.837588 1.36725 1.1101 1.12456 1.41605 1.36335 1.12973 1.28024 1.02961 1.18505 0.934611 0.963711 1.02552 1.11191 1.10662 1.23921 1.25981 0.80446 1.47662 0.866823 0.927716 0.823576 1.47125 1.15526 0.836696 1.02914 1.13526 1.49555 0.946149 0.803526 1.06393 0.88917 1.38265 1.31465 1.4245 1.3656 1.10716 1.31494 1.0134 0.934812 1.38091 1.32709 1.44387 0.808075 0.982871 1.00985 1.30172 0.806414 1.43525 1.19947 1.10551 0.880084 1.05615 1.20461 1.03131 1.41469 0.947114 1.05787 1.40284 1.20945 1.0534 0.834994 1.01501 0.924125 0.979999 0.808543 0.934215 1.17773 1.07453 1.30968 1.29194 1.48381 0.886912 0.887808 0.97843 1.17865 1.0073 1.45217 1.20457 0.867797 1.44786 1.45103 1.14282 1.294 0.862756 1.20218 0.865331 1.04422 1.46367 1.17812 1.42094 1.49901 1.10156 1.01967 1.48915 0.814947 0.973396 0.91054 1.31146 1.22321 1.22664 1.39414 0.89844 1.11562 0.862924 1.27871 1.35996 1.07045 0.880985 0.931574 1.33635 1.19419 1.11729 0.958928 1.31402 1.29187 1.24988 1.00894 0.988606 0.901025 1.08447 1.12653 1.29111 1.1496 1.27177 0.99782 1.14002 1.46445 1.0146 1.13595 1.11197 1.08267 0.814319 0.995925 0.90117 0.904149 0.90849 1.01341 1.33154 0.830072 1.29023 1.03768 1.4369 0.977255 1.49575 1.44931 0.964341 1.49437 1.21795 1.1289 1.11301 0.96839 1.14293 0.927609 1.41614 1.38112 1.00804 1.06559 1.373 1.21829 0.892615 0.988982 1.02696 1.32923 0.897359 1.09837 0.903534 1.31 1.34048 1.14123 1.15148 1.15574 1.33908 1.07934 0.826825 1.4315 1.27969 1.04925 1.47964 1.33442 0.801241 0.958536 1.48186 1.22108 1.04522 1.10355 0.896978 0.931369 1.34194 
1.05799 0.832052 1.20642 1.40434 1.14903 1.32748 1.112 1.29383 1.13319 0.853051 1.16317 1.0448 0.850175 1.22494 1.07905 1.11038 0.82871 1.0722 1.28158 0.835508 1.09181 1.35111 1.05384 0.983224 0.846186 0.814073 1.31511 1.26684 1.12741 1.18245 1.40176 1.28417 1.03136 1.47687 1.25801 1.33815 1.44727 1.32436 0.803788 1.00366 1.32091 1.08648 1.14929 1.36936 0.923159 1.35278 1.35393 1.30989 1.1009 1.03002 1.2607 1.3406 1.15389 1.37596 1.09638 1.15254 1.05308 1.12904 0.894747 1.1469 0.959499 1.13124 1.24324 1.39314 1.45075 1.3807 1.37962 1.48515 1.42545 1.11361 1.4946 1.2661 1.107 1.42367 1.49557 0.919945 1.30965 0.811862 0.802661 1.36198 0.913019 1.12785 1.22424 0.942682 1.33416 1.23264 1.4925 1.42542 1.26557 1.11965 0.839085 1.35891 1.11291 1.13035 0.888093 0.834701 1.29295 1.48413 0.862353 1.02712 0.881383 0.935869 1.00013 1.39628 1.28738 1.44051 1.46921 1.0658 1.47358 1.01393 1.04264 1.01942 1.04486 0.998917 0.986389 1.2774 1.20404 1.22237 0.973443 1.35011 1.16787 1.34806 1.07069 0.824962 0.856844 1.07255 1.25871 0.882157 1.46825 1.33598 0.9739 1.00273 1.49481 0.801726 1.41878 1.09511 1.40829 1.25673 1.07327 0.82113 1.39174 1.37491 0.976183 0.940168 1.24622 0.871263 1.26274 1.32908 1.03705 0.926954 1.02912 1.25435 0.856238 1.19723 1.08526 0.919335 1.37227 1.10794 1.11335 1.08556 0.904737 0.840683 1.369 1.42093 1.10628 1.0797 1.16877 1.26893 1.41719 1.00786 1.00228 0.913875 0.89642 0.973871 1.0348 1.22878 0.968504 1.4043 1.48962 1.08252 0.90097 1.48981 1.10798 1.37271 0.925504 1.03564 0.989397 0.989694 0.944598 1.05017 1.46036 1.12053 1.08698 1.38673 1.28126 1.11568 1.3364 0.906436 1.16392 1.06709 
0.98965 1.02208 0.954037 0.817512 1.13703 1.22856 1.05701 0.918333 0.897847 0.831585 1.11238 1.49088 1.49066 1.46285 1.43549 1.11126 1.25803 1.14227 1.17477 0.89886 1.45954 1.42108 1.43919 0.94252 1.18416 1.31657 1.42783 1.32943 0.820114 1.30836 1.06563 0.984344 0.901299 0.977933 1.46037 0.908306 1.35412 1.48659 0.929809 1.26539 1.45086 1.24469 1.06158 1.32486 0.95817 1.26524 0.969343 1.22298 1.09139 1.43414 1.21297 1.01627 1.07198 1.43207 0.943608 1.13428 1.19335 1.14095 1.33175 1.15438 1.35811 1.28113 0.935335 1.44011 1.48177 1.3773 1.0113 1.33395 1.07446 1.02609 1.19595 1.49142 1.3524 0.847955 1.19316 1.05756 1.40387 1.43857 0.981616 0.836837 0.876873 0.851654 1.11704 1.29921 1.02905 1.21385 1.17307 1.411 1.23508 0.938863 0.897029 1.12055 1.32431 1.19152 1.08299 0.909636 1.30717 1.27373 0.931577 1.18604 0.847319 1.28301 1.28276 1.46954 1.35463 1.42057 1.26467 1.00149 1.08463 0.904577 0.893372 1.47525 0.954693 0.845222 1.31233 1.45614 1.22953 1.2962 1.18804 0.94201 0.882768 1.06779 0.957848 1.159 0.904036 1.11772 1.10086 0.844447 1.10323 1.24532 1.2059 1.38168 1.16044 1.07478 1.17799 1.00681 0.874237 1.10705 1.21591 1.3474 0.858327 0.963829 1.32196 1.40366 1.42809 1.13815 1.07427 1.20679 1.38865 0.870774 1.37393 1.3958 0.943657 1.36994 1.15016 1.07657 1.33493 1.06724 1.09402 1.42672 1.36812 1.49344 1.29129 1.22371 1.30707 0.945394 1.47907 1.40669 1.22465 1.21113 0.974475 1.35614 0.841761 1.45756 1.15096 0.838206 1.34961 1.38579 0.962729 1.39322 0.978643 1.19981 0.912485 0.888103 1.2926 1.44326 0.80933 0.824958 1.09659 0.906919 0.953943 1.36318 0.851843 1.02341 1.16341 1.03289 1.25148 0.997294 1.0107 0.936944 
1.42118 1.38554 1.15117 1.3018 0.817882 1.27965 1.29925 1.1667 1.43132 0.997598 1.32048 1.06693 1.40716 0.833778 0.844259 1.19906 0.919704 1.43867 1.47107 0.884198 0.828417 0.822014 1.3691 1.02544 1.48 0.903464 1.0934 1.19095 1.06953 0.978887 1.11891 1.4299 0.942333 0.848182 1.45223 0.934447 0.830988 1.42484 0.998842 0.961227 1.46439 1.21764 1.23918 1.32048 0.882585 0.873342 1.15623 1.06132 1.41083 1.2597 1.23023 1.19305 1.09663 1.32661 0.812011 1.12765 1.16555 0.922325 0.866825 0.903341 0.912982 1.20965 1.26274 1.41625 0.914614 1.24263 1.30339 1.06252 1.44403 0.888755 1.32964 1.42264 1.21841 1.3051 1.03133 1.3533 1.49425 0.908403 0.867882 1.02317 1.14357 1.00537 1.04819 1.33459 1.47015 1.23138 0.849881 1.2182 0.936096 0.995866 1.2195 1.09519 1.4145 1.06051 1.15663 1.33559 1.42219 0.994452 0.842011 1.19311 1.24596 0.990031 1.27553 0.869495 1.38144 1.05026 1.37913 0.857407 0.88159 1.22773 0.844963 1.35486 1.06315 0.980742 1.10059 1.11102 0.946227 1.12518 1.41092 1.03554 0.943145 0.822356 1.42098 1.04815 0.95462 0.823802 1.03181 0.964674 1.21209 0.907113 1.4521 1.36899 1.08373 1.45125 1.31787 0.841252 1.20646 0.865258 1.2363 0.965904 1.37704 1.23387 1.18826 1.01269 1.45823 1.38915 1.0919 1.44758 1.38299 0.917993 1.11296 1.44039 1.18183 0.840576 1.12504 0.840227 1.04643 1.16026 0.811421 1.19431 1.27954 0.811528 1.45684 1.49819 1.12398 1.21852 1.09595 0.863127 0.919127 1.3723 1.18094 1.41513 1.24736 1.05835 1.09772 0.836542 0.86099 1.42122 0.98393 1.2035 1.16352 1.23459 1.21295 0.832605 1.38289 0.959116 1.21165 1.002 1.25977 1.0067 1.01875 1.48646 0.957149 1.26411 1.39623 0.993399 0.8757 1.47566 1.23861 1.04195 
1.17214 1.20953 1.36792 0.94858 1.24152 1.11784 0.915732 1.08349 1.42158 1.28858 1.33127 1.42082 1.32161 1.1875 1.07468 1.42842 0.868248 1.05781 1.29739 1.08799 1.0039 1.02281 0.918496 1.34585 1.03238 0.869426 1.40994 1.30107 1.3194 1.43018 0.979373 0.940008 1.25284 1.05171 1.25652 1.15657 0.968905 1.06827 1.48588 1.35936 0.858699 1.11976 1.15914 1.35229 1.08764 1.00303 0.826032 1.43366 1.34724 1.45896 1.37986 1.39198 0.859028 0.894951 0.928868 1.31989 0.91186 1.34873 1.38274 1.07373 1.19158 1.185 1.44596 0.895285 1.24775 0.944178 1.32788 0.837484 1.36155 0.853543 1.07376 1.23105 0.848945 1.13915 0.895511 1.37011 1.32351 1.47989 1.35355 0.824573 0.952881 1.1585 0.961903 1.30465 0.994368 1.41789 1.26511 0.963539 1.402 1.24983 1.07003 0.804116 1.12714 0.971341 0.820352 1.05493 1.00371 1.4294 1.05662 0.864985 1.45006 0.941448 0.9687 1.4073 0.84815 1.37166 1.26104 1.1497 0.843798 1.14414 0.971992 0.867199 1.44174 1.06183 1.00362 1.39135 1.25001 1.12268 1.33576 0.918488 0.888336 1.13357 1.23142 0.845619 1.05355 1.22244 1.26966 0.971495 1.09653 1.25133 1.44246 1.24946 1.37959 0.900256 1.05404 1.11043 1.41576 0.859355 1.24621 0.910091 1.25974 0.915502 1.48989 0.959065 0.960609 1.11619 0.981547 1.21777 0.988444 1.27916 0.864688 1.28686 0.855839 0.80815 0.897846 1.19581 1.29401 1.187 0.824803 1.14076 1.10545 0.941904 1.394 0.92701 1.24189 1.01615 1.21994 1.23624 1.43516 0.854535 1.12961 1.38945 1.19897 1.45966 0.984124 1.29146 1.07089 0.896128 1.12148 0.926864 1.36815 1.33194 1.01277 1.1086 1.23868 1.03934 0.954113 1.17848 1.14644 1.42817 1.49218 1.09803 1.28001 1.49209 1.48656 1.49053 1.1673 1.16692 1.21807 1.10112 
0.817802 1.21188 1.01943 0.941718 1.45468 1.02318 0.867001 1.43003 1.27204 1.31084 1.27452 1.2493 0.985014 1.36515 1.14392 1.31328 1.2319 1.23659 1.29152 1.16474 0.96105 1.1974 1.12971 1.094 1.23919 1.05912 1.14164 1.05992 1.40421 1.13552 0.92779 1.0626 1.2132 1.47962 0.852169 0.938137 0.977707 1.34757 0.969205 1.06606 1.0679 0.900024 1.29329 1.40539 1.24751 1.10183 1.35041 1.02261 1.22995 1.00274 1.42772 1.00444 1.34078 1.33158 1.21708 1.43585 1.42951 1.33235 1.27604 1.45995 1.13617 1.08166 1.03263 0.883285 1.40222 1.02336 0.89927 1.06595 1.30449 0.909696 0.837592 1.21744 1.08056 0.853869 0.985163 1.00088 1.23532 1.38095 1.06093 1.4478 0.836185 1.14436 1.06352 1.27343 1.45835 1.35357 1.19166 1.37236 1.41277 1.05078 1.29409 0.814374 0.934532 1.45544 1.45688 1.08107 1.04861 0.968234 1.04654 1.33679 1.12171 0.97882 0.975945 1.45098 0.866774 1.21276 0.801974 0.882671 1.3769 1.27426 1.21342 1.06679 1.05284 1.34137 1.19267 1.38824 1.12642 1.39884 1.36369 0.90383 1.12301 1.33732 1.11553 1.05621 1.34899 1.16626 1.35657 1.13379 1.13829 1.39989 0.803872 1.15517 0.876621 0.993794 1.4534 1.23071 1.33948 1.08348 1.09259 1.12246 1.24754 1.39636 1.22953 1.47467 1.33479 1.09913 1.26375 0.900782 1.4777 1.16622 0.853387 1.37889 1.36939 1.33102 1.00598 1.0246 1.44568 0.847288 0.857285 0.951039 1.04456 1.42472 0.822896 0.865234 0.959142 1.17112 1.18055 1.22404 1.18766 1.44824 1.39754 0.946761 1.15583 0.829998 0.926126 1.38641 1.18883 1.10728 1.46128 1.08247 1.33575 1.48841 1.30101 1.43811 1.25473 1.37272 1.11996 0.959675 0.991624 0.903836 1.13387 0.842744 1.39269 1.12196 1.19603 0.959018 0.851625 0.938341 0.85737 0.854019 
0.872973 1.27367 1.02112 1.2098 1.12588 1.37331 0.840524 1.05278 1.19246 1.40034 1.0244 1.39375 1.49734 1.13229 1.27931 0.847611 1.30553 1.35348 1.11514 1.15788 1.49724 0.999928 0.813008 1.46426 1.30124 1.00274 0.937363 0.82866 1.33319 0.999819 1.34613 0.889949 1.48873 1.12984 1.29413 0.840428 1.07726 1.12883 0.90459 1.0459 0.803874 1.00288 0.810047 1.3557 1.42159 1.08178 1.44826 0.889678 1.35265 1.36513 0.838702 1.24312 1.00101 1.29922 1.02357 0.914603 1.07585 1.40064 1.10988 1.28657 1.20504 0.983204 1.04056 0.891322 1.46573 0.896442 1.41407 1.30348 0.899741 0.814179 1.26395 0.816476 1.00839 1.49728 0.896499 1.18734 1.44537 1.24181 1.23155 1.08416 0.939757 1.48432 1.45803 1.45672 0.947713 1.13546 0.917794 1.35684 1.42944 0.831031 0.9682 0.925236 1.4929 1.20713 1.35898 1.19413 1.06122 1.2231 1.032 0.983021 1.13699 0.839789 1.45912 0.853162 0.925866 1.33694 0.971057 1.45093 0.873874 1.06022 1.0242 0.847689 0.992477 1.17659 1.28015 0.881225 1.43696 1.02587 1.49144 1.45979 1.11559 1.00582 1.39228 1.33666 1.00819 0.897162 1.30249 1.28852 1.0443 0.982854 1.03771 1.05913 0.926237 1.16222 1.06323 1.24003 0.835504 0.807343 0.900992 1.09362 0.998551 1.41948 1.43594 1.42741 1.16976 1.49959 1.2835 1.40194 0.801376 1.40084 1.14146 1.1867 0.86296 0.943319 1.37771 1.12048 1.26913 1.07133 1.16624 1.20354 1.19918 1.28412 0.938788 1.20102 1.26993 0.90136 1.47451 1.04412 0.844222 1.32171 1.44249 0.809818 1.32508 1.17817 1.47111 0.876272 1.2258 0.938383 1.07505 1.07879 1.34903 1.46481 1.32786 1.29496 1.47792 1.34041 0.838518 0.913001 0.848418 1.06653 0.835268 1.23522 1.02247 0.999409 0.865275 1.01289 1.40864 1.18792 0.958864 1.05868 
1.11134 0.889458 1.48543 1.49275 0.827649 1.45186 1.44727 0.873316 1.17481 0.919117 0.932974 1.48126 0.80223 0.853743 1.17933 0.807344 0.938525 1.16485 1.41865 1.46916 1.35979 1.29669 1.24698 1.24245 0.834973 1.15018 0.907941 1.03321 1.11478 1.35322 1.47582 1.03026 0.926172 0.803094 1.10955 1.02197 1.37303 1.44891 1.49063 0.90761 1.27929 0.886058 1.35662 0.993401 0.83086 1.07607 1.3601 1.29874 0.973874 1.31439 1.48572 1.27971 1.03017 1.35963 1.29274 1.00191 0.944704 0.874811 0.875107 1.11153 1.27581 1.21026 1.47224 1.22717 0.826215 1.327 0.823958 1.36104 0.957834 1.08738 1.40534 1.2276 1.15875 0.924324 1.33633 1.43372 1.23393 1.40725 0.935351 1.18645 1.04013 1.41464 1.43767 1.0719 1.1585 1.20479 1.26482 1.0042 1.40325 0.83328 1.43177 1.36101 1.33803 1.0463 1.36307 1.46022 0.82328 0.815107 1.20035 1.44327 1.10031 1.1712 1.25181 1.27597 1.41821 1.23558 1.13065 1.16633 1.34356 1.47706 1.32622 1.37436 1.08768 1.35956 0.993442 1.13899 1.27753 1.01652 1.45359 1.39241 1.25556 1.0713 1.26891 0.863327 1.20834 1.25052 0.943641 0.83033 1.40033 1.41645 0.917164 1.18971 1.29573 1.25401 1.1289 1.33639 1.15642 1.44234 1.44717 1.41992 1.21391 1.4581 1.11034 1.22933 1.00731 1.11319 1.03554 0.932789 1.04961 0.959087 1.04509 1.0643 1.17614 1.32559 1.08523 1.21768 1.14795 0.819855 0.983616 1.49416 0.876961 1.29726 1.27279 1.0886 1.19006 1.22221 1.22304 0.835983 1.13506 1.38292 0.966158 1.04051 1.42707 0.831504 1.4876 1.06259 1.43808 0.838121 1.08487 0.946845 1.19053 0.853 1.46151 1.35343 1.27871 1.01253 1.26233 1.04505 1.08976 1.34086 1.39599 1.37375 1.26799 1.36579 1.16842 0.975836 1.03829 1.08177 0.963626 0.859648 
